Job started at: 09-Aug-2018 18:44:20
Job started at: 09-Aug-2018 18:45:11
Job started at: 09-Aug-2018 18:46:35
Job successfully ends at: 09-Aug-2018 18:49:52
========================================================================
Job started at: 09-Aug-2018 18:51:55
Job started at: 09-Aug-2018 18:59:36
Job successfully ends at: 09-Aug-2018 19:00:08
========================================================================
Job started at: 09-Aug-2018 19:05:29
Job started at: 10-Aug-2018 12:18:56
Job started at: 10-Aug-2018 12:21:12
Job started at: 10-Aug-2018 12:30:54
8/25/2018 is not in the correct format.10-Aug-2018 12:32:15
Job successfully ends at: 10-Aug-2018 12:32:25
========================================================================
Job started at: 10-Aug-2018 12:33:07
Job started at: 10-Aug-2018 12:36:50
Job started at: 10-Aug-2018 12:37:52
Job started at: 10-Aug-2018 12:38:59
Job started at: 10-Aug-2018 12:40:06
Job started at: 10-Aug-2018 12:44:24
Job successfully ends at: 10-Aug-2018 12:44:40
========================================================================
Job started at: 10-Aug-2018 12:49:14
Job successfully ends at: 10-Aug-2018 12:49:30
========================================================================
