#TYPE System.Object
"Solution","KeyName","LastRefreshed"
"tpw","tpwbe_deployednl-be","Today"
"tpw","tpwde_deployedde-de","Today"
"tpw","tpwlv_deployedlv-lv","Today"
"tpw","tpwes_deployedes-es","Today"
"tpw","tpwit_deployedit-it","Today"
"tpw","tpwca_deployeden-ca","Today"
"tpw","tpwlt_deployedlt-lt","Today"
"tpw","tpwfi_deployedfi-fi","Today"
"tpw","tpwfr_deployedfr-fr","Today"
"tpw","tpwau_deployeden-au","Today"
"tpw","tpwinco_centralen","Today"
"tpw","tpwbe_deployedfr-be","Today"
"tpw","tpwdk_deployedda-dk","Today"
"tpw","tpwcz_deployedcs-cz","Today"
"tpw","tpwru_deployedru-ru","Today"
"tpw","tpwno_deployednb-no","Today"
"tpw","tpwnl_deployednl-nl","Today"
"tpw","tpwua_deployedru-ua","Today"
"tpw","tpwna_totalen-us","Today"
"tpw","tpwse_deployedsv-se","Today"
"tpw","tpwca_deployedfr-ca","Today"
"tpw","tpwpt_deployedpt-pt","Today"
"tpw","tpwsk_deployedsk-sk","Today"
"tpw","tpwhu_deployedhu-hu","Today"
"tpw","tpwsi_deployedsl-si","Today"
"tpw","tpwch_deployedit-ch","Today"
"tpw","tpwmt_deployeden-mt","Today"
"tpw","tpwpl_deployedpl-pl","Today"
"tpw","tpwhr_deployedhr-hr","Today"
"tpw","tpwat_deployedde-at","Today"
"tpw","tpwus_deployeden-us","Today"
"tpw","tpwro_deployedro-ro","Today"
"tpw","tpwgb_deployeden-gb","Today"
"tpw","tpwrs_deployedsr-rs","Today"
"tpw","tpwch_deployedfr-ch","Today"
"tpw","tpwch_deployedde-ch","Today"
"tpw","tpwua_deployeduk-ua","Today"
